Extract all references — jst_get_references • rOpenSci: jstor
…
In order to get all available information on citation data, you might need to
combine jst_get_references() with jst_get_footnotes().

For newer xml-files, there would be the option to extract single elements
like authors, title or date of the source, but this is not yet implemented.

In general, the implementation is not as fast as jst_get_article() -
articles with many references slow the process down.

    Examples

jst_get_references(jst_example("article_with_references.xml"))

#> # A tibble: 23 x 13
#>    file_name ref_title ref_authors ref_collab ref_item_title ref_year ref_source
#>    <chr>     <chr>     <chr>       <chr>      <chr>          <chr>    <chr>     
#>  1 article_… Bibliogr… NA          NA         NA             NA       NA        
#>  2 article_… Bibliogr… NA          NA         NA             NA       NA        
#>  3 article_… Referenc… NA          NA         NA             NA       NA        
#>  4 article_… Referenc… NA          NA         NA             NA       NA        
#>  5 article_… Referenc… NA          NA         NA             NA       NA        
#>  6 article_… Referenc… NA          NA         NA             NA       NA        
#>  7 article_… Referenc… NA          NA         NA             NA       NA        
#>  8 article_… Referenc… NA          NA         NA             NA       NA        
#>  9 article_… Referenc… NA          NA         NA             NA       NA        
#> 10 article_… Referenc… NA          NA         NA             NA       NA        
#> # … with 13 more rows, and 6 more variables: ref_volume <chr>,
#> #   ref_first_page <chr>, ref_last_page <chr>, ref_publisher <chr>,
#> #   ref_publication_type <chr>, ref_unparsed <chr>
…
